…
The following objects are masked from 'package:base':

    intersect, setdiff, setequal, union

Rows: 3680 Columns: 70
-- Column specification --------------------------------------------------------
Delimiter: ","
chr   (6): web_name, first_name, news, photo, second_name, status
dbl  (56): gameweek, event_points, next_gw_points, total_points, chance_of_p...
lgl   (6): in_dreamteam, special, squad_number, corners_and_indirect_freekic...
dttm  (2): news_added, correct_as_of_time

i Use `spec()` to retrieve the full column specification for this data.
i Specify the column types or set `show_col_types = FALSE` to quiet this message.
# A tibble: 600 x 2
   web_name         mean_next_gw_points
   <chr>                          <dbl>
 1 Cancelo                          8.4
 2 Salah                            7.4
 3 Gallagher                        6.8
 4 Raphinha                         6.8
 5 Sá                               6.6
 6 Alexander-Arnold                 6.2
 7 Smith Rowe                       6.2
 8 Bowen                            5.8
 9 Jiménez                          5.8
10 Pukki                            5.8
# ... with 590 more rows
…
